{
    "states": [
        { "name": "Kasoa" },

        { "name": "Oxford-Street" },

        { "name": "East-Legon" },

        { "name": "Kejetia" },

        { "name": "Takoradi" },

        { "name": "Osu" },

        { "name": "Dzorwulu" },

        { "name": "Amasaman" },

        { "name": "Achimota" },

        { "name": "Circle" }
       
    ]
}